{
  "type": "infinitynbeyond:end_infusion",
  "ingredients" : [
    {
      "item": "infinitynbeyond:end_essence"
    },
    {
      "item": "minecraft:netherite_boots"
    }
  ],
  "output": {
    "item": "infinitynbeyond:end_essence_boots"
  }
}